[{
    "Zipcode": 24210,
    "City": "abingdon",
    "State": "VA",
    "StateFullName": "Virginia"
},
{
    "Zipcode": 24211,
    "City": "abingdon",
    "State": "VA",
    "StateFullName": "Virginia"
},
{
    "Zipcode": 24212,
    "City": "abingdon",
    "State": "VA",
    "StateFullName": "Virginia"
},
{
    "Zipcode": 24517,
    "City": "altavista",
    "State": "VA",
    "StateFullName": "Virginia"
},
{
    "Zipcode": 24520,
    "City": "alton",
    "State": "VA",
    "StateFullName": "Virginia"
},
{
    "Zipcode": 24521,
    "City": "amherst",
    "State": "VA",
    "StateFullName": "Virginia"
},
{
    "Zipcode": 24595,
    "City": "sweet briar",
    "State": "VA",
    "StateFullName": "Virginia"
},
{
    "Zipcode": 24601,
    "City": "amonate",
    "State": "VA",
    "StateFullName": "Virginia"
},
{
    "Zipcode": 24215,
    "City": "andover",
    "State": "VA",
    "StateFullName": "Virginia"
},
{
    "Zipcode": 24216,
    "City": "appalachia",
    "State": "VA",
    "StateFullName": "Virginia"
},
{
    "Zipcode": 24522,
    "City": "appomattox",
    "State": "VA",
    "StateFullName": "Virginia"
},
{
    "Zipcode": 24053,
    "City": "ararat",
    "State": "VA",
    "StateFullName": "Virginia"
},
{
    "Zipcode": 24311,
    "City": "atkins",
    "State": "VA",
    "StateFullName": "Virginia"
},
{
    "Zipcode": 24312,
    "City": "austinville",
    "State": "VA",
    "StateFullName": "Virginia"
},
{
    "Zipcode": 24054,
    "City": "axton",
    "State": "VA",
    "StateFullName": "Virginia"
},
{
    "Zipcode": 24602,
    "City": "bandy",
    "State": "VA",
    "StateFullName": "Virginia"
},
{
    "Zipcode": 24313,
    "City": "barren springs",
    "State": "VA",
    "StateFullName": "Virginia"
},
{
    "Zipcode": 24055,
    "City": "bassett",
    "State": "VA",
    "StateFullName": "Virginia"
},
{
    "Zipcode": 24314,
    "City": "bastian",
    "State": "VA",
    "StateFullName": "Virginia"
},
{
    "Zipcode": 24523,
    "City": "bedford",
    "State": "VA",
    "StateFullName": "Virginia"
},
{
    "Zipcode": 24058,
    "City": "belspring",
    "State": "VA",
    "StateFullName": "Virginia"
},
{
    "Zipcode": 24218,
    "City": "ben hur",
    "State": "VA",
    "StateFullName": "Virginia"
},
{
    "Zipcode": 24059,
    "City": "bent mountain",
    "State": "VA",
    "StateFullName": "Virginia"
},
{
    "Zipcode": 24526,
    "City": "big island",
    "State": "VA",
    "StateFullName": "Virginia"
},
{
    "Zipcode": 24603,
    "City": "big rock",
    "State": "VA",
    "StateFullName": "Virginia"
},
{
    "Zipcode": 24219,
    "City": "big stone gap",
    "State": "VA",
    "StateFullName": "Virginia"
},
{
    "Zipcode": 24220,
    "City": "birchleaf",
    "State": "VA",
    "StateFullName": "Virginia"
},
{
    "Zipcode": 24604,
    "City": "bishop",
    "State": "VA",
    "StateFullName": "Virginia"
},
{
    "Zipcode": 24060,
    "City": "blacksburg",
    "State": "VA",
    "StateFullName": "Virginia"
},
{
    "Zipcode": 24061,
    "City": "blacksburg",
    "State": "VA",
    "StateFullName": "Virginia"
},
{
    "Zipcode": 24062,
    "City": "blacksburg",
    "State": "VA",
    "StateFullName": "Virginia"
},
{
    "Zipcode": 24063,
    "City": "blacksburg",
    "State": "VA",
    "StateFullName": "Virginia"
},
{
    "Zipcode": 24221,
    "City": "blackwater",
    "State": "VA",
    "StateFullName": "Virginia"
},
{
    "Zipcode": 24527,
    "City": "blairs",
    "State": "VA",
    "StateFullName": "Virginia"
},
{
    "Zipcode": 24315,
    "City": "bland",
    "State": "VA",
    "StateFullName": "Virginia"
},
{
    "Zipcode": 24605,
    "City": "bluefield",
    "State": "VA",
    "StateFullName": "Virginia"
},
{
    "Zipcode": 24064,
    "City": "blue ridge",
    "State": "VA",
    "StateFullName": "Virginia"
},
{
    "Zipcode": 24178,
    "City": "villamont",
    "State": "VA",
    "StateFullName": "Virginia"
},
{
    "Zipcode": 24606,
    "City": "boissevain",
    "State": "VA",
    "StateFullName": "Virginia"
},
{
    "Zipcode": 24065,
    "City": "boones mill",
    "State": "VA",
    "StateFullName": "Virginia"
},
{
    "Zipcode": 24607,
    "City": "breaks",
    "State": "VA",
    "StateFullName": "Virginia"
},
{
    "Zipcode": 24201,
    "City": "bristol",
    "State": "VA",
    "StateFullName": "Virginia"
},
{
    "Zipcode": 24202,
    "City": "bristol",
    "State": "VA",
    "StateFullName": "Virginia"
},
{
    "Zipcode": 24203,
    "City": "bristol",
    "State": "VA",
    "StateFullName": "Virginia"
},
{
    "Zipcode": 24205,
    "City": "bristol",
    "State": "VA",
    "StateFullName": "Virginia"
},
{
    "Zipcode": 24209,
    "City": "bristol",
    "State": "VA",
    "StateFullName": "Virginia"
},
{
    "Zipcode": 24316,
    "City": "broadford",
    "State": "VA",
    "StateFullName": "Virginia"
},
{
    "Zipcode": 24528,
    "City": "brookneal",
    "State": "VA",
    "StateFullName": "Virginia"
},
{
    "Zipcode": 24066,
    "City": "buchanan",
    "State": "VA",
    "StateFullName": "Virginia"
},
{
    "Zipcode": 24529,
    "City": "buffalo junction",
    "State": "VA",
    "StateFullName": "Virginia"
},
{
    "Zipcode": 24530,
    "City": "callands",
    "State": "VA",
    "StateFullName": "Virginia"
},
{
    "Zipcode": 24067,
    "City": "callaway",
    "State": "VA",
    "StateFullName": "Virginia"
},
{
    "Zipcode": 24317,
    "City": "cana",
    "State": "VA",
    "StateFullName": "Virginia"
},
{
    "Zipcode": 24069,
    "City": "cascade",
    "State": "VA",
    "StateFullName": "Virginia"
},
{
    "Zipcode": 24224,
    "City": "castlewood",
    "State": "VA",
    "StateFullName": "Virginia"
},
{
    "Zipcode": 24070,
    "City": "catawba",
    "State": "VA",
    "StateFullName": "Virginia"
},
{
    "Zipcode": 24609,
    "City": "cedar bluff",
    "State": "VA",
    "StateFullName": "Virginia"
},
{
    "Zipcode": 24318,
    "City": "ceres",
    "State": "VA",
    "StateFullName": "Virginia"
},
{
    "Zipcode": 24531,
    "City": "chatham",
    "State": "VA",
    "StateFullName": "Virginia"
},
{
    "Zipcode": 24072,
    "City": "check",
    "State": "VA",
    "StateFullName": "Virginia"
},
{
    "Zipcode": 24319,
    "City": "chilhowie",
    "State": "VA",
    "StateFullName": "Virginia"
},
{
    "Zipcode": 24068,
    "City": "christiansburg",
    "State": "VA",
    "StateFullName": "Virginia"
},
{
    "Zipcode": 24073,
    "City": "christiansburg",
    "State": "VA",
    "StateFullName": "Virginia"
},
{
    "Zipcode": 24076,
    "City": "claudville",
    "State": "VA",
    "StateFullName": "Virginia"
},
{
    "Zipcode": 24225,
    "City": "cleveland",
    "State": "VA",
    "StateFullName": "Virginia"
},
{
    "Zipcode": 24533,
    "City": "clifford",
    "State": "VA",
    "StateFullName": "Virginia"
},
{
    "Zipcode": 24226,
    "City": "clinchco",
    "State": "VA",
    "StateFullName": "Virginia"
},
{
    "Zipcode": 24269,
    "City": "mc clure",
    "State": "VA",
    "StateFullName": "Virginia"
},
{
    "Zipcode": 24228,
    "City": "clintwood",
    "State": "VA",
    "StateFullName": "Virginia"
},
{
    "Zipcode": 24534,
    "City": "clover",
    "State": "VA",
    "StateFullName": "Virginia"
},
{
    "Zipcode": 24077,
    "City": "cloverdale",
    "State": "VA",
    "StateFullName": "Virginia"
},
{
    "Zipcode": 24535,
    "City": "cluster springs",
    "State": "VA",
    "StateFullName": "Virginia"
},
{
    "Zipcode": 24230,
    "City": "coeburn",
    "State": "VA",
    "StateFullName": "Virginia"
},
{
    "Zipcode": 24536,
    "City": "coleman falls",
    "State": "VA",
    "StateFullName": "Virginia"
},
{
    "Zipcode": 24078,
    "City": "collinsville",
    "State": "VA",
    "StateFullName": "Virginia"
},
{
    "Zipcode": 24538,
    "City": "concord",
    "State": "VA",
    "StateFullName": "Virginia"
},
{
    "Zipcode": 24079,
    "City": "copper hill",
    "State": "VA",
    "StateFullName": "Virginia"
},
{
    "Zipcode": 24322,
    "City": "cripple creek",
    "State": "VA",
    "StateFullName": "Virginia"
},
{
    "Zipcode": 24082,
    "City": "critz",
    "State": "VA",
    "StateFullName": "Virginia"
},
{
    "Zipcode": 24323,
    "City": "crockett",
    "State": "VA",
    "StateFullName": "Virginia"
},
{
    "Zipcode": 24539,
    "City": "crystal hill",
    "State": "VA",
    "StateFullName": "Virginia"
},
{
    "Zipcode": 24083,
    "City": "daleville",
    "State": "VA",
    "StateFullName": "Virginia"
},
{
    "Zipcode": 24236,
    "City": "damascus",
    "State": "VA",
    "StateFullName": "Virginia"
},
{
    "Zipcode": 24237,
    "City": "dante",
    "State": "VA",
    "StateFullName": "Virginia"
},
{
    "Zipcode": 24540,
    "City": "danville",
    "State": "VA",
    "StateFullName": "Virginia"
},
{
    "Zipcode": 24541,
    "City": "danville",
    "State": "VA",
    "StateFullName": "Virginia"
},
{
    "Zipcode": 24543,
    "City": "danville",
    "State": "VA",
    "StateFullName": "Virginia"
},
{
    "Zipcode": 24217,
    "City": "bee",
    "State": "VA",
    "StateFullName": "Virginia"
},
{
    "Zipcode": 24239,
    "City": "davenport",
    "State": "VA",
    "StateFullName": "Virginia"
},
{
    "Zipcode": 24612,
    "City": "doran",
    "State": "VA",
    "StateFullName": "Virginia"
},
{
    "Zipcode": 24324,
    "City": "draper",
    "State": "VA",
    "StateFullName": "Virginia"
},
{
    "Zipcode": 24243,
    "City": "dryden",
    "State": "VA",
    "StateFullName": "Virginia"
},
{
    "Zipcode": 24549,
    "City": "dry fork",
    "State": "VA",
    "StateFullName": "Virginia"
},
{
    "Zipcode": 24084,
    "City": "dublin",
    "State": "VA",
    "StateFullName": "Virginia"
},
{
    "Zipcode": 24244,
    "City": "duffield",
    "State": "VA",
    "StateFullName": "Virginia"
},
{
    "Zipcode": 24325,
    "City": "dugspur",
    "State": "VA",
    "StateFullName": "Virginia"
},
{
    "Zipcode": 24245,
    "City": "dungannon",
    "State": "VA",
    "StateFullName": "Virginia"
},
{
    "Zipcode": 24085,
    "City": "eagle rock",
    "State": "VA",
    "StateFullName": "Virginia"
},
{
    "Zipcode": 24246,
    "City": "east stone gap",
    "State": "VA",
    "StateFullName": "Virginia"
},
{
    "Zipcode": 24086,
    "City": "eggleston",
    "State": "VA",
    "StateFullName": "Virginia"
},
{
    "Zipcode": 24326,
    "City": "elk creek",
    "State": "VA",
    "StateFullName": "Virginia"
},
{
    "Zipcode": 24087,
    "City": "elliston",
    "State": "VA",
    "StateFullName": "Virginia"
},
{
    "Zipcode": 24327,
    "City": "emory",
    "State": "VA",
    "StateFullName": "Virginia"
},
{
    "Zipcode": 24550,
    "City": "evington",
    "State": "VA",
    "StateFullName": "Virginia"
},
{
    "Zipcode": 24248,
    "City": "ewing",
    "State": "VA",
    "StateFullName": "Virginia"
},
{
    "Zipcode": 24613,
    "City": "falls mills",
    "State": "VA",
    "StateFullName": "Virginia"
},
{
    "Zipcode": 24328,
    "City": "fancy gap",
    "State": "VA",
    "StateFullName": "Virginia"
},
{
    "Zipcode": 24088,
    "City": "ferrum",
    "State": "VA",
    "StateFullName": "Virginia"
},
{
    "Zipcode": 24089,
    "City": "fieldale",
    "State": "VA",
    "StateFullName": "Virginia"
},
{
    "Zipcode": 24090,
    "City": "fincastle",
    "State": "VA",
    "StateFullName": "Virginia"
},
{
    "Zipcode": 24091,
    "City": "floyd",
    "State": "VA",
    "StateFullName": "Virginia"
},
{
    "Zipcode": 24551,
    "City": "forest",
    "State": "VA",
    "StateFullName": "Virginia"
},
{
    "Zipcode": 24250,
    "City": "fort blackmore",
    "State": "VA",
    "StateFullName": "Virginia"
},
{
    "Zipcode": 24330,
    "City": "fries",
    "State": "VA",
    "StateFullName": "Virginia"
},
{
    "Zipcode": 24333,
    "City": "galax",
    "State": "VA",
    "StateFullName": "Virginia"
},
{
    "Zipcode": 24251,
    "City": "gate City",
    "State": "VA",
    "StateFullName": "Virginia"
},
{
    "Zipcode": 24290,
    "City": "weber City",
    "State": "VA",
    "StateFullName": "Virginia"
},
{
    "Zipcode": 24092,
    "City": "glade hill",
    "State": "VA",
    "StateFullName": "Virginia"
},
{
    "Zipcode": 24340,
    "City": "glade spring",
    "State": "VA",
    "StateFullName": "Virginia"
},
{
    "Zipcode": 24553,
    "City": "gladstone",
    "State": "VA",
    "StateFullName": "Virginia"
},
{
    "Zipcode": 24554,
    "City": "gladys",
    "State": "VA",
    "StateFullName": "Virginia"
},
{
    "Zipcode": 24555,
    "City": "glasgow",
    "State": "VA",
    "StateFullName": "Virginia"
},
{
    "Zipcode": 24093,
    "City": "glen lyn",
    "State": "VA",
    "StateFullName": "Virginia"
},
{
    "Zipcode": 24556,
    "City": "goode",
    "State": "VA",
    "StateFullName": "Virginia"
},
{
    "Zipcode": 24095,
    "City": "goodview",
    "State": "VA",
    "StateFullName": "Virginia"
},
{
    "Zipcode": 24557,
    "City": "gretna",
    "State": "VA",
    "StateFullName": "Virginia"
},
{
    "Zipcode": 24614,
    "City": "grundy",
    "State": "VA",
    "StateFullName": "Virginia"
},
{
    "Zipcode": 24558,
    "City": "halifax",
    "State": "VA",
    "StateFullName": "Virginia"
},
{
    "Zipcode": 24101,
    "City": "hardy",
    "State": "VA",
    "StateFullName": "Virginia"
},
{
    "Zipcode": 24256,
    "City": "haysi",
    "State": "VA",
    "StateFullName": "Virginia"
},
{
    "Zipcode": 24102,
    "City": "henry",
    "State": "VA",
    "StateFullName": "Virginia"
},
{
    "Zipcode": 24343,
    "City": "hillsville",
    "State": "VA",
    "StateFullName": "Virginia"
},
{
    "Zipcode": 24258,
    "City": "hiltons",
    "State": "VA",
    "StateFullName": "Virginia"
},
{
    "Zipcode": 24347,
    "City": "hiwassee",
    "State": "VA",
    "StateFullName": "Virginia"
},
{
    "Zipcode": 24260,
    "City": "honaker",
    "State": "VA",
    "StateFullName": "Virginia"
},
{
    "Zipcode": 24619,
    "City": "horsepen",
    "State": "VA",
    "StateFullName": "Virginia"
},
{
    "Zipcode": 24104,
    "City": "huddleston",
    "State": "VA",
    "StateFullName": "Virginia"
},
{
    "Zipcode": 24620,
    "City": "hurley",
    "State": "VA",
    "StateFullName": "Virginia"
},
{
    "Zipcode": 24563,
    "City": "hurt",
    "State": "VA",
    "StateFullName": "Virginia"
},
{
    "Zipcode": 24348,
    "City": "independence",
    "State": "VA",
    "StateFullName": "Virginia"
},
{
    "Zipcode": 24105,
    "City": "indian valley",
    "State": "VA",
    "StateFullName": "Virginia"
},
{
    "Zipcode": 24350,
    "City": "ivanhoe",
    "State": "VA",
    "StateFullName": "Virginia"
},
{
    "Zipcode": 24565,
    "City": "java",
    "State": "VA",
    "StateFullName": "Virginia"
},
{
    "Zipcode": 24622,
    "City": "jewell ridge",
    "State": "VA",
    "StateFullName": "Virginia"
},
{
    "Zipcode": 24263,
    "City": "jonesville",
    "State": "VA",
    "StateFullName": "Virginia"
},
{
    "Zipcode": 24566,
    "City": "keeling",
    "State": "VA",
    "StateFullName": "Virginia"
},
{
    "Zipcode": 24624,
    "City": "keen mountain",
    "State": "VA",
    "StateFullName": "Virginia"
},
{
    "Zipcode": 24265,
    "City": "keokee",
    "State": "VA",
    "StateFullName": "Virginia"
},
{
    "Zipcode": 24351,
    "City": "lambsburg",
    "State": "VA",
    "StateFullName": "Virginia"
},
{
    "Zipcode": 24352,
    "City": "laurel fork",
    "State": "VA",
    "StateFullName": "Virginia"
},
{
    "Zipcode": 24266,
    "City": "lebanon",
    "State": "VA",
    "StateFullName": "Virginia"
},
{
    "Zipcode": 24569,
    "City": "long island",
    "State": "VA",
    "StateFullName": "Virginia"
},
{
    "Zipcode": 24570,
    "City": "lowry",
    "State": "VA",
    "StateFullName": "Virginia"
},
{
    "Zipcode": 24501,
    "City": "lynchburg",
    "State": "VA",
    "StateFullName": "Virginia"
},
{
    "Zipcode": 24502,
    "City": "lynchburg",
    "State": "VA",
    "StateFullName": "Virginia"
},
{
    "Zipcode": 24503,
    "City": "lynchburg",
    "State": "VA",
    "StateFullName": "Virginia"
},
{
    "Zipcode": 24504,
    "City": "lynchburg",
    "State": "VA",
    "StateFullName": "Virginia"
},
{
    "Zipcode": 24505,
    "City": "lynchburg",
    "State": "VA",
    "StateFullName": "Virginia"
},
{
    "Zipcode": 24506,
    "City": "lynchburg",
    "State": "VA",
    "StateFullName": "Virginia"
},
{
    "Zipcode": 24513,
    "City": "lynchburg",
    "State": "VA",
    "StateFullName": "Virginia"
},
{
    "Zipcode": 24514,
    "City": "lynchburg",
    "State": "VA",
    "StateFullName": "Virginia"
},
{
    "Zipcode": 24515,
    "City": "lynchburg",
    "State": "VA",
    "StateFullName": "Virginia"
},
{
    "Zipcode": 24571,
    "City": "lynch station",
    "State": "VA",
    "StateFullName": "Virginia"
},
{
    "Zipcode": 24111,
    "City": "mc coy",
    "State": "VA",
    "StateFullName": "Virginia"
},
{
    "Zipcode": 24572,
    "City": "madison heights",
    "State": "VA",
    "StateFullName": "Virginia"
},
{
    "Zipcode": 24354,
    "City": "marion",
    "State": "VA",
    "StateFullName": "Virginia"
},
{
    "Zipcode": 24112,
    "City": "martinsville",
    "State": "VA",
    "StateFullName": "Virginia"
},
{
    "Zipcode": 24113,
    "City": "martinsville",
    "State": "VA",
    "StateFullName": "Virginia"
},
{
    "Zipcode": 24114,
    "City": "martinsville",
    "State": "VA",
    "StateFullName": "Virginia"
},
{
    "Zipcode": 24115,
    "City": "martinsville",
    "State": "VA",
    "StateFullName": "Virginia"
},
{
    "Zipcode": 24627,
    "City": "mavisdale",
    "State": "VA",
    "StateFullName": "Virginia"
},
{
    "Zipcode": 24628,
    "City": "maxie",
    "State": "VA",
    "StateFullName": "Virginia"
},
{
    "Zipcode": 24360,
    "City": "max meadows",
    "State": "VA",
    "StateFullName": "Virginia"
},
{
    "Zipcode": 24120,
    "City": "meadows of dan",
    "State": "VA",
    "StateFullName": "Virginia"
},
{
    "Zipcode": 24361,
    "City": "meadowview",
    "State": "VA",
    "StateFullName": "Virginia"
},
{
    "Zipcode": 24270,
    "City": "mendota",
    "State": "VA",
    "StateFullName": "Virginia"
},
{
    "Zipcode": 24121,
    "City": "moneta",
    "State": "VA",
    "StateFullName": "Virginia"
},
{
    "Zipcode": 24574,
    "City": "monroe",
    "State": "VA",
    "StateFullName": "Virginia"
},
{
    "Zipcode": 24122,
    "City": "montvale",
    "State": "VA",
    "StateFullName": "Virginia"
},
{
    "Zipcode": 24363,
    "City": "mouth of wilson",
    "State": "VA",
    "StateFullName": "Virginia"
},
{
    "Zipcode": 24124,
    "City": "narrows",
    "State": "VA",
    "StateFullName": "Virginia"
},
{
    "Zipcode": 24576,
    "City": "naruna",
    "State": "VA",
    "StateFullName": "Virginia"
},
{
    "Zipcode": 24577,
    "City": "nathalie",
    "State": "VA",
    "StateFullName": "Virginia"
},
{
    "Zipcode": 24578,
    "City": "natural bridge",
    "State": "VA",
    "StateFullName": "Virginia"
},
{
    "Zipcode": 24579,
    "City": "natural bridge station",
    "State": "VA",
    "StateFullName": "Virginia"
},
{
    "Zipcode": 24580,
    "City": "nelson",
    "State": "VA",
    "StateFullName": "Virginia"
},
{
    "Zipcode": 24126,
    "City": "newbern",
    "State": "VA",
    "StateFullName": "Virginia"
},
{
    "Zipcode": 24127,
    "City": "new castle",
    "State": "VA",
    "StateFullName": "Virginia"
},
{
    "Zipcode": 24128,
    "City": "newport",
    "State": "VA",
    "StateFullName": "Virginia"
},
{
    "Zipcode": 24129,
    "City": "new river",
    "State": "VA",
    "StateFullName": "Virginia"
},
{
    "Zipcode": 24271,
    "City": "nickelsville",
    "State": "VA",
    "StateFullName": "Virginia"
},
{
    "Zipcode": 24272,
    "City": "nora",
    "State": "VA",
    "StateFullName": "Virginia"
},
{
    "Zipcode": 24630,
    "City": "north tazewell",
    "State": "VA",
    "StateFullName": "Virginia"
},
{
    "Zipcode": 24273,
    "City": "norton",
    "State": "VA",
    "StateFullName": "Virginia"
},
{
    "Zipcode": 24581,
    "City": "norwood",
    "State": "VA",
    "StateFullName": "Virginia"
},
{
    "Zipcode": 24631,
    "City": "oakwood",
    "State": "VA",
    "StateFullName": "Virginia"
},
{
    "Zipcode": 24130,
    "City": "oriskany",
    "State": "VA",
    "StateFullName": "Virginia"
},
{
    "Zipcode": 24131,
    "City": "paint bank",
    "State": "VA",
    "StateFullName": "Virginia"
},
{
    "Zipcode": 24132,
    "City": "parrott",
    "State": "VA",
    "StateFullName": "Virginia"
},
{
    "Zipcode": 24133,
    "City": "patrick springs",
    "State": "VA",
    "StateFullName": "Virginia"
},
{
    "Zipcode": 24134,
    "City": "pearisburg",
    "State": "VA",
    "StateFullName": "Virginia"
},
{
    "Zipcode": 24136,
    "City": "pembroke",
    "State": "VA",
    "StateFullName": "Virginia"
},
{
    "Zipcode": 24137,
    "City": "penhook",
    "State": "VA",
    "StateFullName": "Virginia"
},
{
    "Zipcode": 24277,
    "City": "pennington gap",
    "State": "VA",
    "StateFullName": "Virginia"
},
{
    "Zipcode": 24634,
    "City": "pilgrims knob",
    "State": "VA",
    "StateFullName": "Virginia"
},
{
    "Zipcode": 24138,
    "City": "pilot",
    "State": "VA",
    "StateFullName": "Virginia"
},
{
    "Zipcode": 24139,
    "City": "pittsville",
    "State": "VA",
    "StateFullName": "Virginia"
},
{
    "Zipcode": 24161,
    "City": "sandy level",
    "State": "VA",
    "StateFullName": "Virginia"
},
{
    "Zipcode": 24635,
    "City": "pocahontas",
    "State": "VA",
    "StateFullName": "Virginia"
},
{
    "Zipcode": 24279,
    "City": "pound",
    "State": "VA",
    "StateFullName": "Virginia"
},
{
    "Zipcode": 24637,
    "City": "pounding mill",
    "State": "VA",
    "StateFullName": "Virginia"
},
{
    "Zipcode": 24301,
    "City": "pulaski",
    "State": "VA",
    "StateFullName": "Virginia"
},
{
    "Zipcode": 24141,
    "City": "radford",
    "State": "VA",
    "StateFullName": "Virginia"
},
{
    "Zipcode": 24142,
    "City": "radford",
    "State": "VA",
    "StateFullName": "Virginia"
},
{
    "Zipcode": 24143,
    "City": "radford",
    "State": "VA",
    "StateFullName": "Virginia"
},
{
    "Zipcode": 24639,
    "City": "raven",
    "State": "VA",
    "StateFullName": "Virginia"
},
{
    "Zipcode": 24640,
    "City": "red ash",
    "State": "VA",
    "StateFullName": "Virginia"
},
{
    "Zipcode": 24647,
    "City": "shortt gap",
    "State": "VA",
    "StateFullName": "Virginia"
},
{
    "Zipcode": 24146,
    "City": "redwood",
    "State": "VA",
    "StateFullName": "Virginia"
},
{
    "Zipcode": 24147,
    "City": "rich creek",
    "State": "VA",
    "StateFullName": "Virginia"
},
{
    "Zipcode": 24641,
    "City": "richlands",
    "State": "VA",
    "StateFullName": "Virginia"
},
{
    "Zipcode": 24148,
    "City": "ridgeway",
    "State": "VA",
    "StateFullName": "Virginia"
},
{
    "Zipcode": 24149,
    "City": "riner",
    "State": "VA",
    "StateFullName": "Virginia"
},
{
    "Zipcode": 24586,
    "City": "ringgold",
    "State": "VA",
    "StateFullName": "Virginia"
},
{
    "Zipcode": 24150,
    "City": "ripplemead",
    "State": "VA",
    "StateFullName": "Virginia"
},
{
    "Zipcode": 24001,
    "City": "roanoke",
    "State": "VA",
    "StateFullName": "Virginia"
},
{
    "Zipcode": 24002,
    "City": "roanoke",
    "State": "VA",
    "StateFullName": "Virginia"
},
{
    "Zipcode": 24003,
    "City": "roanoke",
    "State": "VA",
    "StateFullName": "Virginia"
},
{
    "Zipcode": 24004,
    "City": "roanoke",
    "State": "VA",
    "StateFullName": "Virginia"
},
{
    "Zipcode": 24005,
    "City": "roanoke",
    "State": "VA",
    "StateFullName": "Virginia"
},
{
    "Zipcode": 24006,
    "City": "roanoke",
    "State": "VA",
    "StateFullName": "Virginia"
},
{
    "Zipcode": 24007,
    "City": "roanoke",
    "State": "VA",
    "StateFullName": "Virginia"
},
{
    "Zipcode": 24008,
    "City": "roanoke",
    "State": "VA",
    "StateFullName": "Virginia"
},
{
    "Zipcode": 24009,
    "City": "roanoke",
    "State": "VA",
    "StateFullName": "Virginia"
},
{
    "Zipcode": 24010,
    "City": "roanoke",
    "State": "VA",
    "StateFullName": "Virginia"
},
{
    "Zipcode": 24011,
    "City": "roanoke",
    "State": "VA",
    "StateFullName": "Virginia"
},
{
    "Zipcode": 24012,
    "City": "roanoke",
    "State": "VA",
    "StateFullName": "Virginia"
},
{
    "Zipcode": 24013,
    "City": "roanoke",
    "State": "VA",
    "StateFullName": "Virginia"
},
{
    "Zipcode": 24014,
    "City": "roanoke",
    "State": "VA",
    "StateFullName": "Virginia"
},
{
    "Zipcode": 24015,
    "City": "roanoke",
    "State": "VA",
    "StateFullName": "Virginia"
},
{
    "Zipcode": 24016,
    "City": "roanoke",
    "State": "VA",
    "StateFullName": "Virginia"
},
{
    "Zipcode": 24017,
    "City": "roanoke",
    "State": "VA",
    "StateFullName": "Virginia"
},
{
    "Zipcode": 24018,
    "City": "roanoke",
    "State": "VA",
    "StateFullName": "Virginia"
},
{
    "Zipcode": 24019,
    "City": "roanoke",
    "State": "VA",
    "StateFullName": "Virginia"
},
{
    "Zipcode": 24020,
    "City": "roanoke",
    "State": "VA",
    "StateFullName": "Virginia"
},
{
    "Zipcode": 24022,
    "City": "roanoke",
    "State": "VA",
    "StateFullName": "Virginia"
},
{
    "Zipcode": 24023,
    "City": "roanoke",
    "State": "VA",
    "StateFullName": "Virginia"
},
{
    "Zipcode": 24024,
    "City": "roanoke",
    "State": "VA",
    "StateFullName": "Virginia"
},
{
    "Zipcode": 24025,
    "City": "roanoke",
    "State": "VA",
    "StateFullName": "Virginia"
},
{
    "Zipcode": 24026,
    "City": "roanoke",
    "State": "VA",
    "StateFullName": "Virginia"
},
{
    "Zipcode": 24027,
    "City": "roanoke",
    "State": "VA",
    "StateFullName": "Virginia"
},
{
    "Zipcode": 24028,
    "City": "roanoke",
    "State": "VA",
    "StateFullName": "Virginia"
},
{
    "Zipcode": 24029,
    "City": "roanoke",
    "State": "VA",
    "StateFullName": "Virginia"
},
{
    "Zipcode": 24030,
    "City": "roanoke",
    "State": "VA",
    "StateFullName": "Virginia"
},
{
    "Zipcode": 24031,
    "City": "roanoke",
    "State": "VA",
    "StateFullName": "Virginia"
},
{
    "Zipcode": 24032,
    "City": "roanoke",
    "State": "VA",
    "StateFullName": "Virginia"
},
{
    "Zipcode": 24033,
    "City": "roanoke",
    "State": "VA",
    "StateFullName": "Virginia"
},
{
    "Zipcode": 24034,
    "City": "roanoke",
    "State": "VA",
    "StateFullName": "Virginia"
},
{
    "Zipcode": 24035,
    "City": "roanoke",
    "State": "VA",
    "StateFullName": "Virginia"
},
{
    "Zipcode": 24036,
    "City": "roanoke",
    "State": "VA",
    "StateFullName": "Virginia"
},
{
    "Zipcode": 24037,
    "City": "roanoke",
    "State": "VA",
    "StateFullName": "Virginia"
},
{
    "Zipcode": 24038,
    "City": "roanoke",
    "State": "VA",
    "StateFullName": "Virginia"
},
{
    "Zipcode": 24040,
    "City": "roanoke",
    "State": "VA",
    "StateFullName": "Virginia"
},
{
    "Zipcode": 24042,
    "City": "roanoke",
    "State": "VA",
    "StateFullName": "Virginia"
},
{
    "Zipcode": 24043,
    "City": "roanoke",
    "State": "VA",
    "StateFullName": "Virginia"
},
{
    "Zipcode": 24050,
    "City": "roanoke",
    "State": "VA",
    "StateFullName": "Virginia"
},
{
    "Zipcode": 24155,
    "City": "roanoke",
    "State": "VA",
    "StateFullName": "Virginia"
},
{
    "Zipcode": 24157,
    "City": "roanoke",
    "State": "VA",
    "StateFullName": "Virginia"
},
{
    "Zipcode": 24366,
    "City": "rocky gap",
    "State": "VA",
    "StateFullName": "Virginia"
},
{
    "Zipcode": 24151,
    "City": "rocky mount",
    "State": "VA",
    "StateFullName": "Virginia"
},
{
    "Zipcode": 24280,
    "City": "rosedale",
    "State": "VA",
    "StateFullName": "Virginia"
},
{
    "Zipcode": 24281,
    "City": "rose hill",
    "State": "VA",
    "StateFullName": "Virginia"
},
{
    "Zipcode": 24646,
    "City": "rowe",
    "State": "VA",
    "StateFullName": "Virginia"
},
{
    "Zipcode": 24368,
    "City": "rural retreat",
    "State": "VA",
    "StateFullName": "Virginia"
},
{
    "Zipcode": 24588,
    "City": "rustburg",
    "State": "VA",
    "StateFullName": "Virginia"
},
{
    "Zipcode": 24282,
    "City": "saint charles",
    "State": "VA",
    "StateFullName": "Virginia"
},
{
    "Zipcode": 24283,
    "City": "saint paul",
    "State": "VA",
    "StateFullName": "Virginia"
},
{
    "Zipcode": 24153,
    "City": "salem",
    "State": "VA",
    "StateFullName": "Virginia"
},
{
    "Zipcode": 24370,
    "City": "saltville",
    "State": "VA",
    "StateFullName": "Virginia"
},
{
    "Zipcode": 24589,
    "City": "scottsburg",
    "State": "VA",
    "StateFullName": "Virginia"
},
{
    "Zipcode": 24562,
    "City": "howardsville",
    "State": "VA",
    "StateFullName": "Virginia"
},
{
    "Zipcode": 24590,
    "City": "scottsville",
    "State": "VA",
    "StateFullName": "Virginia"
},
{
    "Zipcode": 24162,
    "City": "shawsville",
    "State": "VA",
    "StateFullName": "Virginia"
},
{
    "Zipcode": 24592,
    "City": "south boston",
    "State": "VA",
    "StateFullName": "Virginia"
},
{
    "Zipcode": 24374,
    "City": "speedwell",
    "State": "VA",
    "StateFullName": "Virginia"
},
{
    "Zipcode": 24165,
    "City": "spencer",
    "State": "VA",
    "StateFullName": "Virginia"
},
{
    "Zipcode": 24593,
    "City": "spout spring",
    "State": "VA",
    "StateFullName": "Virginia"
},
{
    "Zipcode": 24167,
    "City": "staffordsville",
    "State": "VA",
    "StateFullName": "Virginia"
},
{
    "Zipcode": 24168,
    "City": "stanleytown",
    "State": "VA",
    "StateFullName": "Virginia"
},
{
    "Zipcode": 24171,
    "City": "stuart",
    "State": "VA",
    "StateFullName": "Virginia"
},
{
    "Zipcode": 24375,
    "City": "sugar grove",
    "State": "VA",
    "StateFullName": "Virginia"
},
{
    "Zipcode": 24594,
    "City": "sutherlin",
    "State": "VA",
    "StateFullName": "Virginia"
},
{
    "Zipcode": 24649,
    "City": "swords creek",
    "State": "VA",
    "StateFullName": "Virginia"
},
{
    "Zipcode": 24377,
    "City": "tannersville",
    "State": "VA",
    "StateFullName": "Virginia"
},
{
    "Zipcode": 24608,
    "City": "burkes garden",
    "State": "VA",
    "StateFullName": "Virginia"
},
{
    "Zipcode": 24651,
    "City": "tazewell",
    "State": "VA",
    "StateFullName": "Virginia"
},
{
    "Zipcode": 24174,
    "City": "thaxton",
    "State": "VA",
    "StateFullName": "Virginia"
},
{
    "Zipcode": 24378,
    "City": "troutdale",
    "State": "VA",
    "StateFullName": "Virginia"
},
{
    "Zipcode": 24175,
    "City": "troutville",
    "State": "VA",
    "StateFullName": "Virginia"
},
{
    "Zipcode": 24176,
    "City": "union hall",
    "State": "VA",
    "StateFullName": "Virginia"
},
{
    "Zipcode": 24656,
    "City": "vansant",
    "State": "VA",
    "StateFullName": "Virginia"
},
{
    "Zipcode": 24597,
    "City": "vernon hill",
    "State": "VA",
    "StateFullName": "Virginia"
},
{
    "Zipcode": 24177,
    "City": "vesta",
    "State": "VA",
    "StateFullName": "Virginia"
},
{
    "Zipcode": 24179,
    "City": "vinton",
    "State": "VA",
    "StateFullName": "Virginia"
},
{
    "Zipcode": 24598,
    "City": "virgilina",
    "State": "VA",
    "StateFullName": "Virginia"
},
{
    "Zipcode": 24292,
    "City": "whitetop",
    "State": "VA",
    "StateFullName": "Virginia"
},
{
    "Zipcode": 24657,
    "City": "whitewood",
    "State": "VA",
    "StateFullName": "Virginia"
},
{
    "Zipcode": 24380,
    "City": "willis",
    "State": "VA",
    "StateFullName": "Virginia"
},
{
    "Zipcode": 24599,
    "City": "wingina",
    "State": "VA",
    "StateFullName": "Virginia"
},
{
    "Zipcode": 24184,
    "City": "wirtz",
    "State": "VA",
    "StateFullName": "Virginia"
},
{
    "Zipcode": 24293,
    "City": "wise",
    "State": "VA",
    "StateFullName": "Virginia"
},
{
    "Zipcode": 24658,
    "City": "wolford",
    "State": "VA",
    "StateFullName": "Virginia"
},
{
    "Zipcode": 24381,
    "City": "woodlawn",
    "State": "VA",
    "StateFullName": "Virginia"
},
{
    "Zipcode": 24185,
    "City": "woolwine",
    "State": "VA",
    "StateFullName": "Virginia"
}]