[{
	"firstname": "Amit",
	"lastname": "Raj",
	"empid": "EMP0012",
	"gender": "Male",
  "email": "amit.raj@gmail.com",
  "phone": "+91-8860479665",
  "picurl": "../../assets/img/userimage/profile_user.jpg",
  "active": "true"
}, {
  "firstname": "Amit",
  "lastname": "Raj",
  "empid": "EMP0012",
  "gender": "Male",
  "email": "amit.raj@gmail.com",
  "phone": "+91-8860479665",
  "picurl": "../../assets/img/userimage/profile_user2.jpg",
  "active": true
}, {
  "firstname": "Nikhil",
  "lastname": "Raj",
  "empid": "EMP0014",
  "gender": "Male",
  "email": "nikhil.raj@gmail.com",
  "phone": "+91-9935622585",
  "picurl": "../../assets/img/userimage/profile_user2.jpg",
  "active": false
},
  {
    "firstname": "Sazid",
    "lastname": "Khan",
    "empid": "EMP0015",
    "gender": "Male",
    "email": "sajid.khan@gmail.com",
    "phone": "+91-8860479665",
    "picurl": "../../assets/img/userimage/profile_user3.jpg",
    "active": true
  }, {
  "firstname": "Aditi",
  "lastname": "Dwivedi",
  "empid": "EMP0016",
  "gender": "Female",
  "email": "aditi.dwivedi@gmail.com",
  "phone": "+91-9935622585",
  "picurl": "../../assets/img/userimage/profile_user5.jpg",
  "active": false
},
  {
    "firstname": "Vivek",
    "lastname": "Raj",
    "empid": "EMP0018",
    "gender": "Female",
    "email": "vivek.raj@gmail.com",
    "phone": "+91-8860479665",
    "picurl": "../../assets/img/userimage/profile_user5.jpg",
    "active": true
  }, {
  "firstname": "Neha",
  "lastname": "Khatri",
  "empid": "EMP0024",
  "gender": "Female",
  "email": "neha.katri@gmail.com",
  "phone": "+91-9935622585",
  "picurl": "../../assets/img/userimage/profile_user6.jpg",
  "active": false
}]
